^E:\PROGRAMING\VISUAL C++\FUNLEARNING\FUNLEARNING\FUNLEARNING\MAIN.CPP
/c /I"E:\Programing\Visual C++\FunLearning\FunLearning\/../External Libraries/SFML/include" /ZI /nologo /W3 /WX- /Od /Oy- /D WIN32 /D _DEBUG /D _CONSOLE /D _LIB /D _UNICODE /D UNICODE /Gm /EHsc /RTC1 /MDd /GS /fp:precise /Zc:wchar_t /Zc:forScope /Fo"DEBUG\\" /Fd"DEBUG\VC120.PDB" /Gd /TP /analyze- E:\PROGRAMING\VISUAL C++\FUNLEARNING\FUNLEARNING\FUNLEARNING\MAIN.CPP
^D:\PROGRAMMING PORTFOLIO\VISUAL C++\FUNLEARNING\FUNLEARNING\FUNLEARNING\MAIN.CPP
/c /I"D:\PROGRAMMING PORTFOLIO\VISUAL C++\FUNLEARNING\FUNLEARNING\/../EXTERNAL LIBRARIES/SFML/INCLUDE" /ZI /JMC /nologo /W3 /WX- /diagnostics:column /Od /Oy- /D WIN32 /D _DEBUG /D _CONSOLE /D _LIB /D _UNICODE /D UNICODE /Gm- /EHsc /RTC1 /MDd /GS /fp:precise /Zc:wchar_t /Zc:forScope /Zc:inline /Fo"DEBUG\\" /Fd"DEBUG\VC142.PDB" /external:W3 /Gd /TP /analyze- /FC D:\PROGRAMMING PORTFOLIO\VISUAL C++\FUNLEARNING\FUNLEARNING\FUNLEARNING\MAIN.CPP
