^E:\PROGRAMING\VISUAL C++\FUNLEARNING\FUNLEARNING\FUNLEARNING\DEBUG\MAIN.OBJ
E:\PROGRAMING\VISUAL C++\FUNLEARNING\EXTERNAL LIBRARIES\SFML\LIB\SFML-MAIN-D.LIB
E:\PROGRAMING\VISUAL C++\FUNLEARNING\EXTERNAL LIBRARIES\SFML\LIB\SFML-GRAPHICS-D.LIB
E:\PROGRAMING\VISUAL C++\FUNLEARNING\EXTERNAL LIBRARIES\SFML\LIB\SFML-WINDOW-D.LIB
E:\PROGRAMING\VISUAL C++\FUNLEARNING\EXTERNAL LIBRARIES\SFML\LIB\SFML-SYSTEM-D.LIB
E:\PROGRAMING\VISUAL C++\FUNLEARNING\EXTERNAL LIBRARIES\SFML\LIB\SFML-AUDIO-D.LIB
E:\PROGRAMING\VISUAL C++\FUNLEARNING\EXTERNAL LIBRARIES\SFML\LIB\SFML-NETWORK-D.LIB
C:\PROGRAM FILES (X86)\WINDOWS KITS\8.1\LIB\WINV6.3\UM\X86\KERNEL32.LIB
C:\PROGRAM FILES (X86)\WINDOWS KITS\8.1\LIB\WINV6.3\UM\X86\USER32.LIB
C:\PROGRAM FILES (X86)\WINDOWS KITS\8.1\LIB\WINV6.3\UM\X86\GDI32.LIB
C:\PROGRAM FILES (X86)\WINDOWS KITS\8.1\LIB\WINV6.3\UM\X86\WINSPOOL.LIB
C:\PROGRAM FILES (X86)\WINDOWS KITS\8.1\LIB\WINV6.3\UM\X86\COMDLG32.LIB
C:\PROGRAM FILES (X86)\WINDOWS KITS\8.1\LIB\WINV6.3\UM\X86\ADVAPI32.LIB
C:\PROGRAM FILES (X86)\WINDOWS KITS\8.1\LIB\WINV6.3\UM\X86\SHELL32.LIB
C:\PROGRAM FILES (X86)\WINDOWS KITS\8.1\LIB\WINV6.3\UM\X86\OLE32.LIB
C:\PROGRAM FILES (X86)\WINDOWS KITS\8.1\LIB\WINV6.3\UM\X86\OLEAUT32.LIB
C:\PROGRAM FILES (X86)\WINDOWS KITS\8.1\LIB\WINV6.3\UM\X86\UUID.LIB
C:\PROGRAM FILES (X86)\WINDOWS KITS\8.1\LIB\WINV6.3\UM\X86\ODBC32.LIB
C:\PROGRAM FILES (X86)\WINDOWS KITS\8.1\LIB\WINV6.3\UM\X86\ODBCCP32.LIB
E:\PROGRAMING\VISUAL C++\FUNLEARNING\FUNLEARNING\FUNLEARNING\DEBUG\MAIN.OBJ
C:\WINDOWS\SYSTEM32\TZRES.DLL
C:\WINDOWS\GLOBALIZATION\SORTING\SORTDEFAULT.NLS
E:\PROGRAM FILES (X86)\MICROSOFT VISUAL STUDIO 12.0\VC\LIB\MSVCPRTD.LIB
E:\PROGRAM FILES (X86)\MICROSOFT VISUAL STUDIO 12.0\VC\LIB\MSVCRTD.LIB
E:\PROGRAM FILES (X86)\MICROSOFT VISUAL STUDIO 12.0\VC\LIB\OLDNAMES.LIB
^D:\PROGRAMMING PORTFOLIO\VISUAL C++\FUNLEARNING\FUNLEARNING\FUNLEARNING\DEBUG\MAIN.OBJ
D:\PROGRAMMING PORTFOLIO\VISUAL C++\FUNLEARNING\EXTERNAL LIBRARIES\SFML\LIB\SFML-MAIN-D.LIB
D:\PROGRAMMING PORTFOLIO\VISUAL C++\FUNLEARNING\EXTERNAL LIBRARIES\SFML\LIB\SFML-GRAPHICS-D.LIB
D:\PROGRAMMING PORTFOLIO\VISUAL C++\FUNLEARNING\EXTERNAL LIBRARIES\SFML\LIB\SFML-WINDOW-D.LIB
D:\PROGRAMMING PORTFOLIO\VISUAL C++\FUNLEARNING\EXTERNAL LIBRARIES\SFML\LIB\SFML-SYSTEM-D.LIB
D:\PROGRAMMING PORTFOLIO\VISUAL C++\FUNLEARNING\EXTERNAL LIBRARIES\SFML\LIB\SFML-AUDIO-D.LIB
D:\PROGRAMMING PORTFOLIO\VISUAL C++\FUNLEARNING\EXTERNAL LIBRARIES\SFML\LIB\SFML-NETWORK-D.LIB
C:\PROGRAM FILES (X86)\WINDOWS KITS\10\LIB\10.0.19041.0\UM\X86\KERNEL32.LIB
C:\PROGRAM FILES (X86)\WINDOWS KITS\10\LIB\10.0.19041.0\UM\X86\USER32.LIB
C:\PROGRAM FILES (X86)\WINDOWS KITS\10\LIB\10.0.19041.0\UM\X86\GDI32.LIB
C:\PROGRAM FILES (X86)\WINDOWS KITS\10\LIB\10.0.19041.0\UM\X86\WINSPOOL.LIB
C:\PROGRAM FILES (X86)\WINDOWS KITS\10\LIB\10.0.19041.0\UM\X86\COMDLG32.LIB
C:\PROGRAM FILES (X86)\WINDOWS KITS\10\LIB\10.0.19041.0\UM\X86\ADVAPI32.LIB
C:\PROGRAM FILES (X86)\WINDOWS KITS\10\LIB\10.0.19041.0\UM\X86\SHELL32.LIB
C:\PROGRAM FILES (X86)\WINDOWS KITS\10\LIB\10.0.19041.0\UM\X86\OLE32.LIB
C:\PROGRAM FILES (X86)\WINDOWS KITS\10\LIB\10.0.19041.0\UM\X86\OLEAUT32.LIB
C:\PROGRAM FILES (X86)\WINDOWS KITS\10\LIB\10.0.19041.0\UM\X86\UUID.LIB
C:\PROGRAM FILES (X86)\WINDOWS KITS\10\LIB\10.0.19041.0\UM\X86\ODBC32.LIB
C:\PROGRAM FILES (X86)\WINDOWS KITS\10\LIB\10.0.19041.0\UM\X86\ODBCCP32.LIB
D:\PROGRAMMING PORTFOLIO\VISUAL C++\FUNLEARNING\FUNLEARNING\FUNLEARNING\DEBUG\MAIN.OBJ
C:\WINDOWS\GLOBALIZATION\SORTING\SORTDEFAULT.NLS
C:\PROGRAM FILES (X86)\MICROSOFT VISUAL STUDIO\2019\COMMUNITY\VC\TOOLS\MSVC\14.29.30133\LIB\X86\MSVCPRTD.LIB
C:\PROGRAM FILES (X86)\MICROSOFT VISUAL STUDIO\2019\COMMUNITY\VC\TOOLS\MSVC\14.29.30133\LIB\X86\MSVCRTD.LIB
C:\PROGRAM FILES (X86)\MICROSOFT VISUAL STUDIO\2019\COMMUNITY\VC\TOOLS\MSVC\14.29.30133\LIB\X86\OLDNAMES.LIB
C:\PROGRAM FILES (X86)\MICROSOFT VISUAL STUDIO\2019\COMMUNITY\VC\TOOLS\MSVC\14.29.30133\LIB\X86\VCRUNTIMED.LIB
C:\PROGRAM FILES (X86)\WINDOWS KITS\10\LIB\10.0.19041.0\UCRT\X86\UCRTD.LIB
C:\PROGRAM FILES (X86)\MICROSOFT VISUAL STUDIO\2019\COMMUNITY\VC\TOOLS\MSVC\14.29.30133\BIN\HOSTX86\X86\CVTRES.EXE
C:\PROGRAM FILES (X86)\MICROSOFT VISUAL STUDIO\2019\COMMUNITY\VC\TOOLS\MSVC\14.29.30133\BIN\HOSTX86\X86\MSPDBSRV.EXE
C:\WINDOWS\SYSTEM32\TZRES.DLL
